\relax 
\select@language{english}
\@writefile{toc}{\select@language{english}}
\@writefile{lof}{\select@language{english}}
\@writefile{lot}{\select@language{english}}
\@writefile{toc}{\contentsline {section}{\numberline {1}\relax \fontsize  {17.28}{22}\selectfont  Specifications}{4}}
\@writefile{toc}{\contentsline {section}{\numberline {2}\relax \fontsize  {17.28}{22}\selectfont  Server Setup}{5}}
\@writefile{toc}{\contentsline {subsection}{\numberline {2.1}LAMP Setup}{5}}
\@writefile{toc}{\contentsline {subsection}{\numberline {2.2}Installing Packages}{5}}
\@writefile{lof}{\contentsline {figure}{\numberline {1}{\ignorespaces Open Passes Table}}{6}}
\@writefile{toc}{\contentsline {subsection}{\numberline {2.3}Overdue Passes}{6}}
\@writefile{lof}{\contentsline {figure}{\numberline {2}{\ignorespaces Overdue Passes Selector}}{6}}
\@writefile{lof}{\contentsline {figure}{\numberline {3}{\ignorespaces Overdue Passes Table}}{7}}
\@writefile{toc}{\contentsline {section}{\numberline {3}\relax \fontsize  {17.28}{22}\selectfont  Cadet Roster}{7}}
\@writefile{toc}{\contentsline {subsection}{\numberline {3.1}Roster Page}{7}}
\@writefile{lof}{\contentsline {figure}{\numberline {4}{\ignorespaces Roster Selector}}{7}}
\@writefile{lof}{\contentsline {figure}{\numberline {5}{\ignorespaces Roster Selector}}{8}}
\@writefile{toc}{\contentsline {section}{\numberline {4}\relax \fontsize  {17.28}{22}\selectfont  User Settings}{8}}
\@writefile{toc}{\contentsline {subsection}{\numberline {4.1}View Previous Passes}{8}}
\@writefile{toc}{\contentsline {subsection}{\numberline {4.2}Update Contact Info}{8}}
\@writefile{toc}{\contentsline {subsection}{\numberline {4.3}Change Password}{8}}
\@writefile{toc}{\contentsline {section}{\numberline {5}\relax \fontsize  {17.28}{22}\selectfont  Admin Settings}{9}}
\@writefile{toc}{\contentsline {subsection}{\numberline {5.1}Modify Unit Assignments}{9}}
\@writefile{toc}{\contentsline {subsubsection}{\numberline {5.1.1}Unit Admin}{9}}
\@writefile{lof}{\contentsline {figure}{\numberline {6}{\ignorespaces Unit Admin Modify Table}}{9}}
\@writefile{toc}{\contentsline {paragraph}{\numberline {5.1.1.1}Adding users}{9}}
\@writefile{lof}{\contentsline {figure}{\numberline {7}{\ignorespaces Adding a user to a unit}}{9}}
\@writefile{toc}{\contentsline {paragraph}{\numberline {5.1.1.2}Removing users}{10}}
\@writefile{toc}{\contentsline {paragraph}{\numberline {5.1.1.3}Elevate Privileges/Remove Privileges}{10}}
\@writefile{toc}{\contentsline {subsubsection}{\numberline {5.1.2}Super User}{10}}
\@writefile{toc}{\contentsline {paragraph}{\numberline {5.1.2.1}Adding users}{10}}
\@writefile{lof}{\contentsline {figure}{\numberline {8}{\ignorespaces Adding a user to a unit}}{10}}
\@writefile{toc}{\contentsline {subsection}{\numberline {5.2}Modify Announcements}{11}}
\@writefile{toc}{\contentsline {subsection}{\numberline {5.3}Reset a Password}{11}}
\@writefile{toc}{\contentsline {subsection}{\numberline {5.4}View Previous Passes}{11}}
\@writefile{toc}{\contentsline {subsection}{\numberline {5.5}Open and Close Passes}{11}}
\@writefile{toc}{\contentsline {subsubsection}{\numberline {5.5.1}Pass Change}{11}}
\@writefile{lof}{\contentsline {figure}{\numberline {9}{\ignorespaces Open and Close Logs}}{11}}
\@writefile{toc}{\contentsline {subsection}{\numberline {5.6}Recalls}{11}}
\ttl@finishall
